#######################################
# Syntax Coloring Map For Ww8_Library#######################################

#######################################
# Datatypes (KEYWORD1)
#######################################Ww8_Library	KEYWORD1
#######################################
# Methods and Functions (KEYWORD2)
#######################################
getServidor	KEYWORD2
getPre_page	KEYWORD2
getPos_page	KEYWORD2
getIndex KEYWORD2
getAp	KEYWORD2
getAjuda	KEYWORD2
getConfigurar_wifi KEYWORD2
getConfigurar_dispositivo	KEYWORD2
getAcionar_dispositivo KEYWORD2
getContato KEYWORD2

#######################################
# Constants (LITERAL1)
#######################################

#	LITERAL1
